<?xml version="1.0" encoding="utf-8"?>
<!-- Generator: Adobe Illustrator 17.0.2, SVG Export Plug-In . SVG Version: 6.00 Build 0)  -->
<!DOCTYPE svg PUBLIC "-//W3C//DTD SVG 1.1//EN" "http://www.w3.org/Graphics/SVG/1.1/DTD/svg11.dtd">
<svg version="1.1" id="Ebene_1" xmlns="http://www.w3.org/2000/svg" xmlns:xlink="http://www.w3.org/1999/xlink" x="0px" y="0px"
	 width="295.333px" height="34.143px" viewBox="-180.5 0 295.333 34.143" enable-background="new -180.5 0 295.333 34.143"
	 xml:space="preserve">
<g>
	<g>
		<path fill="#FFFFFF" d="M-111.047,26.45c-2.216,0.579-4.473,0.868-6.771,0.868c-4.864,0-7.295-2.509-7.295-7.529
			c0-4.633,2.335-6.95,7.006-6.95c1.25,0,2.386,0.23,3.406,0.689v-5.93h3.655L-111.047,26.45L-111.047,26.45z M-114.702,16.617
			c-0.938-0.497-2.068-0.745-3.392-0.745c-2.271,0-3.406,1.273-3.406,3.82c0,3.025,1.135,4.537,3.406,4.537
			c1.324,0,2.455-0.18,3.392-0.538V16.617z"/>
		<path fill="#FFFFFF" d="M-95.029,21.499h-9.474c0,1.949,1.59,2.923,4.771,2.923c1.462,0,2.923-0.138,4.385-0.414v2.896
			c-1.278,0.275-2.923,0.413-4.937,0.413c-5.25,0-7.874-2.468-7.874-7.405c0-4.716,2.404-7.075,7.212-7.075
			C-96.146,12.839-94.174,15.726-95.029,21.499z M-104.503,18.823h6.04c0.129-2.077-0.836-3.116-2.896-3.116
			C-103.289,15.707-104.337,16.746-104.503,18.823z"/>
		<path fill="#FFFFFF" d="M-79.572,21.499h-9.474c0,1.949,1.59,2.923,4.771,2.923c1.462,0,2.923-0.138,4.385-0.414v2.896
			c-1.278,0.275-2.923,0.413-4.937,0.413c-5.25,0-7.874-2.468-7.874-7.405c0-4.716,2.404-7.075,7.212-7.075
			C-80.689,12.839-78.717,15.726-79.572,21.499z M-89.046,18.823h6.04c0.129-2.077-0.836-3.116-2.896-3.116
			C-87.833,15.707-88.881,16.746-89.046,18.823z"/>
		<path fill="#FFFFFF" d="M-76.405,13.432c1.921-0.396,4.045-0.593,6.372-0.593c5.102,0,7.653,2.294,7.653,6.881
			c0,5.066-2.335,7.598-7.005,7.598c-1.158,0-2.28-0.229-3.365-0.689v5.93h-3.655C-76.405,32.559-76.405,13.432-76.405,13.432z
			 M-72.75,23.54c1.002,0.497,2.119,0.745,3.351,0.745c2.271,0,3.406-1.531,3.406-4.592c0-2.602-1.296-3.903-3.889-3.903
			c-1.223,0-2.179,0.064-2.868,0.193V23.54z"/>
		<path fill="#FFFFFF" d="M-59.49,27.318V12.839h2.827l0.455,1.848c1.756-1.232,3.521-1.848,5.295-1.848
			c3.337,0,5.006,1.797,5.006,5.392v9.087h-3.654v-9.129c0-1.6-0.795-2.399-2.386-2.399c-1.278,0-2.574,0.611-3.889,1.834v9.694
			H-59.49z"/>
		<path fill="#FFFFFF" d="M-43.035,22.809c0-2.97,2.096-4.455,6.288-4.455c1.26,0,2.381,0.092,3.365,0.276v-0.952
			c0-1.296-1.255-1.944-3.765-1.944c-1.582,0-3.153,0.23-4.717,0.689v-2.896c1.563-0.459,3.135-0.689,4.717-0.689
			c4.945,0,7.419,1.591,7.419,4.771v9.708h-1.848l-1.572-1.021c-1.26,0.681-2.602,1.021-4.027,1.021
			C-41.082,27.318-43.035,25.815-43.035,22.809z M-36.747,21.113c-1.756,0-2.634,0.551-2.634,1.655c0,1.103,0.735,1.655,2.206,1.655
			c1.49,0,2.754-0.377,3.793-1.131v-1.903C-34.302,21.205-35.423,21.113-36.747,21.113z"/>
		<path fill="#FFFFFF" d="M-26.138,10.494h2.703l0.552,2.344h3.364v2.896h-2.965v6.661c0,1.352,0.584,2.027,1.752,2.027h1.213v2.896
			h-2.979c-2.427,0-3.641-1.301-3.641-3.902V10.494H-26.138z"/>
		<path fill="#FFFFFF" d="M-3.149,12.839v14.479h-2.854l-0.441-1.848c-1.757,1.232-3.521,1.848-5.296,1.848
			c-3.328,0-4.992-1.797-4.992-5.392v-9.088h3.654v9.129c0,1.6,0.791,2.399,2.372,2.399c1.278,0,2.579-0.611,3.903-1.834v-9.695
			h3.654V12.839z"/>
		<path fill="#FFFFFF" d="M0.496,27.318V12.839h2.827l0.455,1.848c1.269-1.232,2.611-1.848,4.027-1.848v2.951
			c-1.361,0-2.579,0.611-3.655,1.834v9.694H0.496z"/>
		<path fill="#FFFFFF" d="M22.501,21.499h-9.475c0,1.949,1.591,2.923,4.771,2.923c1.462,0,2.924-0.138,4.386-0.414v2.896
			c-1.278,0.275-2.924,0.413-4.937,0.413c-5.25,0-7.875-2.468-7.875-7.405c0-4.716,2.404-7.075,7.213-7.075
			C21.384,12.839,23.356,15.726,22.501,21.499z M13.027,18.823h6.041c0.128-2.077-0.837-3.116-2.896-3.116
			C14.24,15.707,13.193,16.746,13.027,18.823z"/>
	</g>
	<g>
		<path fill="#FFFFFF" d="M30.533,13.432c1.922-0.396,3.907-0.593,5.958-0.593c4.643,0,6.964,2.294,6.964,6.881
			c0,5.066-2.335,7.598-7.006,7.598c-1.158,0-2.647-0.229-4.468-0.689v5.93h-1.448V13.432z M31.982,25.195
			c1.737,0.496,3.223,0.744,4.454,0.744c3.742,0,5.613-2.082,5.613-6.247c0-3.705-1.862-5.558-5.586-5.558
			c-1.287,0-2.78,0.11-4.481,0.331V25.195z"/>
		<path fill="#FFFFFF" d="M47.383,27.318V12.839h1.034l0.18,1.848c0.809-1.232,2.105-1.848,3.889-1.848v1.158
			c-1.729,0-2.946,0.612-3.654,1.834v11.487H47.383z"/>
		<path fill="#FFFFFF" d="M54.416,20.079c0-4.827,2.299-7.24,6.896-7.24s6.896,2.414,6.896,7.24c0,4.817-2.299,7.226-6.896,7.226
			C56.734,27.304,54.435,24.896,54.416,20.079z M61.312,26.077c3.631,0,5.447-2.018,5.447-6.053c0-3.962-1.816-5.944-5.447-5.944
			c-3.632,0-5.447,1.981-5.447,5.944C55.864,24.059,57.68,26.077,61.312,26.077z"/>
		<path fill="#FFFFFF" d="M73.526,12.839v13.377c0,2.923-0.713,4.982-2.138,6.178l-1.034-0.896c1.149-0.781,1.724-2.542,1.724-5.281
			V12.839H73.526z M73.526,7.598v1.379h-1.448V7.598H73.526z"/>
		<path fill="#FFFFFF" d="M89.782,20.396H78.93c0,3.788,2.234,5.681,6.702,5.681c1.277,0,2.556-0.138,3.834-0.413v1.241
			c-1.278,0.275-2.832,0.413-4.661,0.413c-4.882,0-7.323-2.468-7.323-7.405c0-4.716,2.312-7.075,6.937-7.075
			C88.666,12.839,90.454,15.358,89.782,20.396z M78.93,19.099h9.487c0.221-3.365-1.25-5.047-4.412-5.047
			C80.786,14.052,79.095,15.735,78.93,19.099z"/>
		<path fill="#FFFFFF" d="M105.126,26.905c-1.195,0.275-2.482,0.413-3.861,0.413c-5.24,0-7.86-2.504-7.86-7.515
			c0-4.643,2.62-6.964,7.86-6.964c1.379,0,2.666,0.138,3.861,0.414v1.241c-1.195-0.276-2.391-0.414-3.585-0.414
			c-4.367,0-6.551,1.908-6.551,5.723c0,4.183,2.184,6.274,6.551,6.274c1.194,0,2.39-0.138,3.585-0.413V26.905z"/>
		<path fill="#FFFFFF" d="M108.597,10.494h0.91l0.276,2.344h3.641v1.241h-3.379v9.143c0,1.903,0.722,2.854,2.165,2.854h1.214v1.241
			h-1.187c-2.427,0-3.641-1.301-3.641-3.902V10.494H108.597z"/>
	</g>
	<path fill="#FFFFFF" d="M-151.445,15.598V1.087c4.565,0.969,8.621,2.733,11.752,5.113v21.072L-151.445,15.598z M-151.445,33.034
		V16.799l11.465,11.335C-143.071,30.407-147.024,32.098-151.445,33.034 M-152.34,15.911v16.777l-14.618-14.519V1.451L-152.34,15.911
		z M-167.853,1.109v16.173l-11.402-11.321C-176.171,3.713-172.241,2.037-167.853,1.109 M-167.853,18.541v14.511
		c-4.564-0.969-8.62-2.73-11.752-5.11V6.871L-167.853,18.541z M-138.882,5.695c-3.463-2.715-8.024-4.668-13.192-5.648L-152.34,0
		v14.71l-14.769-14.666l-0.114,0.022c-5.169,0.984-9.729,2.933-13.192,5.648L-180.5,5.78v22.601l0.085,0.066
		c3.463,2.715,8.024,4.664,13.192,5.644l0.265,0.052v-14.71l14.769,14.662l0.114-0.022c5.169-0.98,9.729-2.932,13.192-5.644
		l0.085-0.066V5.762L-138.882,5.695z"/>
</g>
</svg>
